{
  "heartbeat"   : true,
  "iosApnCertificateForCustomer":"/home/storx/taximust/taximust/ckTaxiMust.pem",
  "iosApnCertificateForDriver":"/home/storx/taximust/taximust/ckTaxiMustDriver.pem",
  "databaseSettings"   : {
    "host"    : "localhost",
    "user"    : "root",
    "password": "root",
    "database": "taximust",
    "port": 8889
  }
}