{
    "heartbeat": true,
    "startPromoCodeWith": "Taxi",
    "PORT": 13100,
    "s3BucketCredentials": {
        "bucket": "taximust",
        "accessKeyId": "AKIAI6S2TWESWXQJ3D5Q",
        "secretAccessKey": "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",
        "s3URL": "http://taximust.s3.amazonaws.com",
        "folder": {
            "userProfileImages": "user_profile",
            "rideData": "ride_data",
            "userProfileDefaultImage": "user.png"
        }
    },
    "faqsHtmlFiles": {
        "tncSchedules": "/../data/tnc_schedules.html"
    },
    "logFiles": {
        "allLogsFilePath": "/../logs/jugnoo_all.log",
        "curiousLogsFilePath": "/../logs/jugnoo_curious.log",
        "notificationLogsFilePath": "/../notification_logs/jugnoo_notifications.log"
    },
    "directoryToUploadFiles": {
        "ridesData": "/../ridesData/",
        "data": "/../data/"
    },

    "iOSPushSettings": {
        "iosApnCertificateForCustomer": "/home/taxidev3/taxiname__-server/app-server/config/verdeCustomer.pem",
        "iosApnCertificateForDriver": "/home/taxidev3/taxiname__-server/app-server/config/verdeDriver.pem",
        "gateway": "gateway.push.apple.com"
    },
    "androidPushSettings": {
        "brandName": "taxiname__",
        "gcmSender": "AIzaSyBHq80dql1wbJQiXgZ0OMM3l7DN1wMKVXU"
    },
    "databaseSettings": {
        "host": "localhost",
        "user": "root",
        "password": "",
        "database": "kidcar_dev",
        "mysqlPORT": "3306",
        "port": "",
        "connectionLimit":50
    },
    "emailCredentials": {
        "service": "smtp.mandrillapp.com",
        "host": "smtp.mandrillapp.com",
        "port": 587,
        "senderEmail": "kunal.sathiya@click-labs.com",
        "multipleSupportEmailIds": "'ashu@clicklabs.in'", //"'support@jugnoo.in', 'manpreet@click-labs.com', 'anuj@jugnoo.in', 'avinash@jugnoo.in'",
        "senderPassword": "bANPbwUDRH7ZWKBm-Qek5Q",
        "From": "taxiname__ <support@taxiname__.com>",
        "signature": "Best, taxiname__ Team",
        "particularSignature": "Best, taxiname__ Dev Team ",
        "devTeamSignature": "Best,taxiname__ Dev Team"
    },
    "twillioCredentials": {
        "accountSid": "AC69e3c0328482a9818f7a4a03055cdede",
        "authToken": "98cbcd6dd9e2eea0d161f1a0024c0e59",
        "fromNumber": "+1 818-273-6878"
    },
    "getOTPUsingNumberURL": "",
    "projectName": "taxiname__",
    "braintreeCredentials": {
        "merchantId": "v5fvq2gfprh846m8",
        "publicKey": "fcfpftq5tskh6bf2",
        "privateKey": "fb9f5a5c56cb3cb866192d8a52409dac"
    },
    "appStoreURL": "",
    "playStoreURL": "",
    "websiteURL": "http://taxiname__.com/",
    "logo": "",
    "supportPhoneNumber": "",
    "fbPage": "",
    "welcomeMailImage": ""
}
